42981 335702
736678 79641
468079 45
582252 909397
495142 705605
885758 194107
664134 793032
987468 50634
36044 334693
21376 664460
460639 32318
217985 256402
243003 750362
327962 296860
626382 574733
717958 141151
179632 656049
874858 84755
504588 842587
53442 49725
960744 790858
819018 448415
221338 618097
511728 458575
830659 350238
167568 208241
553789 289557
410962 431821
261373 388703
912856 916412
565809 885271
667350 73898
957766 648419
806779 311659
484665 873569
879982 66366
738858 271687
678625 168578
959926 316011
95930 264417
721010 165534
466912 21622
75183 687584
633588 31169
109096 707238
409501 899453
27383 373430
341596 864765
118077 522716
168625 815858
337883 324258
626353 615930
501134 916741
929645 193929
102017 331592
775214 307846
573995 860558
672496 568912
622440 577430
35832 947801
753987 301594
581672 269214
608701 779445
543512 440455
722372 121866
361738 879915
115323 254532
493466 503751
465741 312736
551713 51983
633094 932411
797035 916045
848223 6125
317736 382954
57215 470390
577357 728602
612045 210443
106982 770304
931638 760796
855767 869535
998281 169852
950986 114250
907854 900893
233623 914443
479085 445701
441549 915728
971923 167592
23118 361809
412943 13806
365247 705490
593586 155122
404047 918926
762616 12780
806766 530864
732926 670377
611736 916449
633 830736
211439 12953
450051 31129
516356 162487
77375 525937
815148 639225
84778 541203
653881 832821
457491 116104
553531 90716
503245 436605
812074 283674
579321 202777
871669 968724
153672 935855
852639 38022
283128 437883
605025 344074
258930 664404
315696 899641
714962 653502
651746 980227
368816 58412
976387 283370
176221 746351
900426 808046
608702 440742
900874 911015
699150 775850
556228 577855
380615 727663
842532 137893
542156 978114
557166 627185
266997 571153
523526 178486
414493 872594
497253 127113
765301 964968
188891 849376
761161 967631
34478 665208
261176 426688
154150 623161
62918 250929
404324 840325
20372 898125
55739 553563
490176 586964
476642 142130
825342 895897
262575 764538
503363 110310
420894 561276
311447 806907
874665 419373
702966 475144
770368 579074
394287 88567
257970 764911
664160 350380
489089 647081
735848 559523
452954 766819
130676 194653
849946 841745
681360 672207
524632 652959
659568 545471
793071 184264
712439 788981
757238 807816
729333 52890
105366 740246
605943 995187
383537 883211
512321 424473
282124 174990
128471 174552
6499 391840
992889 894140
130302 652717
850420 505453
692738 774514
354318 501553
221067 867028
222613 890323
445571 964219
854998 101204
661883 343101
473395 513576
880819 240282
441601 416928
749410 803737
338988 641597
96581 657608
636788 963583
741877 558141
633971 462871
720110 625235
938309 614235
887214 684406
559472 920625
361856 195785
822267 306278
786278 247325
442013 989280
369795 520776
397224 676009
664563 273796
689934 376375
708948 629080
126507 314607
247835 960900
88382 991558
115229 360540
382851 360320
561367 178959
247609 472305
562341 282841
3513 548974
583166 108013
299115 98207
276669 208953
215026 557451
142889 511368
