628575 362823 509
884511 825353 525
408583 134102 443
297366 283882 389
344054 69535 443
595994 553364 434
836389 299355 509
758194 618230 509
707893 287233 509
319520 64178 443
105621 784439 509
841211 689935 525
393177 238278 441
46592 557307 470
674833 133946 509
797132 3204 509
142936 145651 326
349691 407528 436
379152 143411 443
709015 369650 509
551663 116469 470
518509 278031 470
439628 683781 509
249624 319506 407
279076 254107 407
912133 924476 445
890448 116919 525
623486 816812 509
987855 801539 525
975596 890898 507
805148 667549 504
844802 232914 525
610344 733554 509
836791 557262 509
57875 561311 470
580494 850369 525
730864 137929 509
55346 676111 509
775908 205618 509
975008 438317 525
16483 242935 443
377351 429443 449
905782 198913 525
641922 730653 504
827311 856848 525
458169 681869 509
994134 52693 525
197800 935532 525
776895 413483 509
878610 467898 525
850009 161177 525
95537 517213 470
3038 936805 525
628466 694881 442
794817 534269 509
794578 142308 509
354087 711354 509
665149 631764 429
189860 728826 509
485965 111072 449
991384 934321 507
750399 137669 509
193328 268312 443
930931 744700 525
919182 476154 525
542732 471704 470
98589 131477 354
666451 62172 509
670457 911173 525
516840 238682 470
579500 375465 470
189586 477330 449
340084 9288 443
48805 930867 525
670545 668708 336
325487 306521 384
653820 56002 509
750604 114595 509
238162 48521 443
195584 443888 449
928198 199985 525
695611 224684 509
561236 669438 509
175254 390827 443
258448 839710 525
289091 401146 441
920240 234498 525
819079 49919 509
287180 139857 443
718499 521024 509
361749 811306 509
687339 355127 509
652957 195268 509
960895 622655 525
430869 498232 444
372488 196571 443
885998 168854 525
350658 416876 449
270439 454830 449
66136 152987 375
275696 326634 389
596928 712655 509
804769 43087 509
64893 687855 509
290039 179170 443
657760 60235 509
256395 870402 525
793957 932813 525
682898 385292 509
204997 176970 365
768785 896492 525
141589 633503 509
344841 529525 470
526561 196607 470
873995 233261 525
830867 41530 509
443034 633116 509
85951 991682 525
883555 845034 432
441419 100097 449
615926 501309 470
561235 179847 470
631947 778110 504
190155 598924 470
52450 498213 449
632552 500318 509
10316 475158 449
897224 977445 507
382802 524337 470
689227 870273 525
598670 32218 470
929725 753108 525
410882 951067 525
423493 200629 449
25803 854203 525
637328 155887 509
289636 413813 449
264151 451051 449
447047 543291 470
314650 26238 443
372225 139892 443
457995 482084 444
643449 149851 509
549483 950753 525
874392 161110 525
683939 951493 525
318176 96653 443
799375 629533 504
667765 901249 525
302621 108724 443
767803 831086 468
800104 499392 509
107760 597601 470
909561 765594 525
939446 447910 525
949582 242466 525
301314 671357 509
788027 583792 509
312444 325698 384
316017 470464 449
487536 909999 525
666717 449128 509
584767 604815 403
419513 220592 449
381824 599866 470
241988 462735 449
31556 419300 449
338510 86260 443
397553 711227 509
327748 69018 443
351895 792143 509
11326 952769 525
814849 79407 509
225105 449985 449
662183 940253 525
19406 275263 443
338046 714086 509
525566 791939 509
332608 715031 509
13646 100431 351
114607 119218 349
764832 203666 509
753968 586963 509
974708 657813 525
160110 749944 509
328769 705722 509
772917 73046 509
426179 785331 509
999362 182881 525
310005 158037 443
587288 478478 470
233871 833506 509
500674 24432 449
406894 851184 525
237027 71555 443
733992 641793 504
853947 237462 525
63522 140127 354
759472 466961 509
574862 877718 525
325001 903997 525
581700 331139 470
889929 378144 525
497878 907046 525
863909 881831 432
919679 294252 525
714388 759152 424
972562 60044 525
154625 771129 509
709395 914422 525
447407 761210 509
19267 767154 509
838323 155330 525
725892 281103 509
330379 744097 509
291998 507245 449
83493 950157 525
785879 340886 509
593525 632379 509
92568 5774 351
786205 816884 468
535636 97959 470
242748 495083 449
174077 605597 470
473469 575700 470
413210 850652 525
330184 373504 441
116809 362723 443
192327 279082 443
748989 242043 509
165439 529708 470
910132 351721 525
740443 517275 509
805187 938147 525
108039 524620 470
432930 270335 449
4985 42641 324
668502 541773 509
96338 181386 383
46671 379339 443
10576 245786 443
536912 648591 509
568114 527870 452
295638 40836 443
858589 252392 525
714585 882979 525
329968 332759 353
177166 758269 509
377208 492246 449
539718 350469 470
