149711 184178
455671 678915
397332 604015
14919 71428
460747 686852
685520 596358
748732 803596
610348 10983
964189 261743
794312 295596
833419 448255
954497 28215
955783 869499
123801 126127
502751 244923
911634 479014
174515 809627
545202 163086
261548 545434
443382 554418
672829 831801
516702 994792
13683 358451
583687 749805
866492 347142
449644 638278
382022 883659
308771 435147
658731 637406
328897 819175
693690 376753
36150 315768
425205 859740
624889 984529
691604 730049
201952 847367
610079 400685
600151 294722
731501 657781
240670 223234
305880 759601
398309 142478
936164 911226
344676 841504
457643 645160
23996 652711
624348 22128
892048 693907
100229 512519
570961 313744
509170 607804
802934 466918
598354 180192
926501 880154
904270 783104
104768 85575
807211 31428
775620 573159
53873 70420
379399 715230
740539 991292
307795 403425
290025 74216
380015 674060
226705 322009
536023 678249
264606 854709
583502 461753
907411 616960
875426 38308
744016 658372
152651 757243
328132 820875
561554 733509
948672 804999
758422 492243
693698 86767
731644 667637
203563 557038
418465 643811
44868 904344
10519 804857
117890 858829
847606 241680
106958 818430
88646 603333
475083 281774
809570 983144
469629 234614
886177 483766
548464 580872
476174 270964
119247 903038
334029 657449
129095 853908
309398 594044
710928 381706
311679 308834
529871 411000
758863 214895
452724 481134
441164 757524
376803 59654
485063 106762
13566 707967
878660 484111
28607 49079
361250 765103
316577 666784
296416 266861
640305 170624
683775 44110
912941 538465
259706 726043
838258 440519
583198 827117
825260 239726
128722 373607
754630 660434
668775 591426
439005 292209
293930 826830
551542 475855
115173 885430
318724 722948
806011 662360
307527 925374
641550 182659
470941 148924
893713 99075
580467 59112
817562 963435
31866 522256
548962 238267
463573 715726
566242 263412
599236 376668
31077 993450
740933 286637
179856 990159
341778 859001
498690 726973
874954 270403
54368 691304
908973 818380
166624 105557
187596 485361
965977 818202
835791 168470
674296 787837
453838 87918
194807 611443
515690 619836
36591 653238
825614 568997
983653 172921
579294 509225
366937 324847
538000 990905
714906 205654
572935 276592
920650 115799
303760 532914
716587 976804
442500 653503
674104 48208
174496 382956
106802 481732
984894 970015
727181 818203
203501 325446
132558 518973
110035 575737
40041 743290
32742 250827
785592 426304
369669 534241
505640 210202
176305 702363
515631 572135
140526 410000
393319 178438
120340 235984
837393 333274
807869 684986
223729 642452
604407 301289
46843 713483
418448 326300
488907 259232
362547 694345
45161 221933
440740 365966
476459 648517
658002 439755
220394 706024
73717 868033
289410 717053
84698 1305
811809 768182
611555 538821
149684 865745
110544 208543
282598 901997
471189 41706
179157 943563
184095 916113
723439 788454
72305 240120
564696 974297
552082 595018
474748 964686
636865 416714
262527 580948
790764 686339
989631 987821
