75580 800393
646937 636385
662904 897012
300967 596151
405382 36010
639840 925849
572029 139170
974998 191162
799027 45155
90743 397059
481938 719928
253884 257805
570447 27106
46884 369457
876187 749309
828942 526316
918504 448338
859943 484287
143555 744014
322218 61246
881372 984100
985585 169388
182549 156114
327942 886237
412904 914816
968414 201801
272464 469218
436065 159505
178621 668463
452654 670003
829413 385324
502812 275818
506639 767957
645773 960750
467071 632553
701298 689163
423608 854928
913660 652198
723129 311033
562274 512539
491489 779019
835052 746176
125353 221727
567960 808525
686219 459532
151629 407283
80853 867108
36367 839183
129981 565701
663328 705133
273298 645931
839522 560909
13374 18505
510536 885981
474868 136261
771724 262463
244291 644901
36515 683222
288504 637436
339509 610858
317973 737072
117128 270887
555393 737499
726987 834039
666009 173988
474036 524883
306461 328290
16851 24057
184 334517
30399 29792
759824 60408
276957 157627
350659 585729
703901 389385
685068 196099
597595 100125
287393 245900
160652 722826
65440 746421
958160 177041
173858 897318
935540 783353
34362 92049
512210 675895
362103 23220
512617 527667
776847 705689
210800 163227
109880 463929
420951 433375
537919 246861
257013 728019
709051 30603
495700 2035
88281 166471
749025 713724
983654 309861
482673 321462
415483 200359
748205 970326
831374 34090
896263 728843
326021 850721
393708 218517
866122 311260
469840 717388
120840 701132
560102 467266
878269 971015
464958 169609
987167 904000
128369 169147
707080 666418
380202 83884
357628 843237
831058 542481
686397 117065
972035 214213
773421 964730
556006 995001
67981 750595
418283 539370
516902 103323
767806 127431
722013 934733
516909 534439
670482 421332
736782 828927
247652 196803
437206 591620
706274 765360
427929 720887
881588 182290
634685 452108
307219 159503
37875 119700
615377 828734
199486 396077
65569 613273
941549 974968
601810 566637
312933 633364
332004 14412
604877 38224
717297 956066
14853 735184
275054 279219
889681 15523
216506 965553
484438 618057
94286 176072
568212 58650
740615 379729
474526 80461
280350 381396
75588 465968
978750 115494
918053 145517
344216 576616
647674 344650
659704 359909
293281 717916
754235 447210
691816 342266
262714 674183
697286 24372
871746 332186
124095 489822
31788 934047
28606 142168
415946 476993
214887 757565
596833 230907
57217 42700
395122 394223
262048 64699
34056 101874
393703 181889
732487 923681
50987 925032
319537 208240
194096 544368
608144 615456
500464 959769
736990 550472
547725 724240
730942 739869
576152 493140
930332 892974
724670 487911
889237 950198
338906 705358
650879 961057
890362 769435
537537 520888
726396 739628
964611 20609
954743 458260
190049 622813
646872 31884
760221 59096
324748 394736
490913 530614
207697 44388
776804 666945
267406 861711
365443 654547
695185 482646
753312 151884
570379 962489
913437 576587
299542 420448
790076 49571
293126 950054
325550 972405
215787 328748
358080 974406
636888 752864
587133 948612
323276 456196
434662 602798
350898 153278
870359 841764
610642 176998
655650 864972
653567 198523
174187 921432
