696043 977444 525
35563 168259 383
952098 942943 414
814036 122617 509
628777 186857 509
697108 128754 509
650630 832576 504
973520 689060 525
776592 782216 437
728762 644329 504
75535 762931 509
54727 256580 443
139283 447240 449
640626 730733 504
746096 550626 509
364162 419449 449
581054 127049 470
227671 239469 443
297615 846135 525
190095 178678 365
669933 820443 504
23542 832176 509
899006 146224 525
958982 369906 525
793209 921332 525
558227 780480 509
139570 439230 449
397838 741088 509
793212 855114 525
926821 915345 445
492473 654451 509
956892 216200 525
519559 292166 470
574421 700062 509
111470 158821 383
297820 837039 509
959491 734656 525
779173 912751 525
419596 895156 525
995342 137264 525
462331 586591 470
499699 353042 449
282439 749944 509
370777 263379 441
514560 564761 452
509579 446320 444
527155 864747 525
651688 317470 509
723304 458196 509
1617 532585 470
970465 378256 525
867553 450372 525
860457 419303 525
537105 472791 470
45179 530842 470
200900 264098 443
469260 237340 449
431811 536985 470
932320 823740 525
598027 329229 470
638428 123682 509
351791 405363 436
768979 567144 509
42472 758349 509
258314 81535 443
323637 305687 384
79475 783364 509
260673 491464 449
601010 45828 470
43926 392034 443
149186 12477 375
293126 324320 384
212682 860068 525
825950 455379 509
705500 337167 509
175767 930351 525
783770 733717 468
797239 453206 509
100765 412426 449
932879 626044 525
438030 507837 444
35965 995125 525
367004 505935 449
906201 610027 525
556369 334853 470
534570 222932 470
298315 605031 470
57453 129990 354
465369 629451 509
591060 978886 525
168224 543673 470
135135 852754 525
192433 96189 383
788524 111761 509
221410 659733 509
194692 636992 509
229244 634818 509
179781 560729 470
513983 87012 470
396859 134510 443
694320 82952 509
437288 569156 470
111216 514444 470
487257 220137 449
167883 716582 509
53464 797104 509
853064 578144 525
373232 472134 449
877964 128138 525
483385 392442 449
743009 561808 509
655423 183894 509
484600 37467 449
510391 33611 449
286312 366323 441
557249 957479 525
877080 856119 432
690554 480719 509
306145 109445 443
973025 234132 525
812990 663787 504
997355 429448 525
22729 37527 324
814198 264647 509
244271 501540 449
807427 433105 509
57115 689503 509
446156 374581 449
476693 680186 509
46955 406634 443
133998 222837 386
882980 606322 525
100424 559650 470
236432 294123 407
124241 378149 443
403391 339637 441
120565 401708 443
877369 49733 525
715456 870057 525
527648 806721 509
714045 332910 509
949757 4415 525
875170 237749 525
995356 251476 525
948227 461377 525
945186 997581 458
288325 72735 443
561011 538575 452
343090 601617 470
597672 962687 525
895420 829270 525
51933 253322 443
734341 138538 509
162118 662020 509
950373 951618 414
637977 686402 442
987729 696647 525
246201 169703 443
310327 774183 509
343116 563461 470
829013 267240 509
56608 710222 509
276900 173143 443
701682 567109 509
489432 5708 449
255426 998946 525
113684 118002 349
393527 852153 525
260926 862317 525
712332 334495 509
985978 786228 525
467809 966644 525
941232 363059 525
407579 856981 525
498236 962454 525
35991 96516 351
677137 781698 504
520691 917082 525
874766 540970 525
682988 743604 504
2548 766520 509
308260 185864 443
111997 453726 449
653237 461928 509
775425 987602 525
147335 518882 470
991475 821454 525
310723 552336 470
712379 382793 509
132448 147456 375
102697 28509 351
692842 113803 509
756465 899558 525
782186 689518 504
843845 813752 525
672924 540422 509
704659 488319 509
498509 682077 509
494481 506947 426
301863 834529 509
126655 579723 470
344255 579415 470
923454 169793 525
23383 137421 354
753875 863253 525
931147 150454 525
528775 442441 470
818210 432078 509
4187 181991 383
739709 261169 509
977009 107132 525
873713 323904 525
761400 197856 509
74401 369711 443
868990 240243 525
574288 511732 470
785687 150696 509
608111 386098 470
277754 762934 509
829937 69067 509
385070 66695 443
581787 539654 452
980967 789578 525
293279 570390 470
180591 391324 443
566393 147089 470
126635 637428 509
465827 2123 449
507392 852751 525
885252 125323 525
9792 394150 443
549917 835744 509
417971 321122 449
556174 698212 509
55992 59031 322
81520 745658 509
646037 324709 509
568593 841718 525
827644 344407 509
529913 791583 509
203648 463862 449
115494 674053 509
499462 374154 449
651222 95797 509
599081 390478 470
874950 807944 525
698003 288829 509
312039 27403 443
21912 13648 279
