918302 295944
556693 110479
528916 827487
73154 132915
953718 917198
894239 163726
781232 866180
624467 34459
949149 54823
293510 586979
743453 608630
677984 515018
158681 198519
719864 295176
598970 184326
426730 706162
845433 970066
373479 798605
129518 251053
835357 124744
456499 461684
856182 950051
361013 668717
123501 921267
407806 976993
190701 679815
108927 112910
348382 387430
328350 173899
18691 605437
242047 6153
757329 337585
486074 365755
187232 793263
821225 98387
965213 549598
727297 214378
942282 404708
620435 26858
92306 327570
357130 734472
138187 696305
366953 100705
479818 818428
883151 758234
659735 857491
477968 750696
448521 420141
543566 640932
514942 987510
486572 283373
228414 474910
475958 533905
362366 33902
115226 487051
757760 489011
212235 276981
619765 430503
684656 117953
123839 280322
699054 7595
480249 315198
203509 139916
24596 242045
452548 89004
742736 356630
513062 334268
186350 541263
314617 233218
265465 146433
370322 939246
757077 481955
382315 848694
936791 417574
428778 478630
197479 286168
219025 158450
142044 801134
274399 219102
771772 494684
294259 126032
327703 551158
461260 717952
998310 159934
753152 242293
873154 461092
432317 59606
384356 190147
357858 7620
560064 741808
994266 463102
648508 125955
431805 513339
440786 2746
555018 95246
65432 625016
691336 842937
903944 111799
223687 765674
852663 481934
409705 874757
549224 343913
666792 119683
568524 130588
317368 352830
158047 73192
265565 231768
970241 379974
298246 522344
613576 380704
375539 412484
168314 380169
601691 867331
943734 559603
863604 879292
681651 614572
186056 810182
201720 310340
112089 705636
510410 415988
565515 57754
639801 470169
659722 90079
753366 539352
772850 788778
705472 221571
651103 208729
595664 117310
614695 206819
754218 429133
474206 146541
200067 215762
46852 763924
662290 40349
774993 391131
96145 721415
610957 289127
510889 590597
193320 196259
710274 795029
165319 845654
415961 205082
533084 686433
595856 909210
757221 153783
347971 814819
607468 39381
690686 488585
823499 494675
261901 606727
896172 43288
781131 720954
768228 518412
339320 219532
88885 845258
749325 766216
410627 52720
768387 737313
565143 28596
897433 403186
808511 521917
119169 236768
394512 887786
160680 663856
278359 23414
690293 274964
301474 177069
671022 330343
380806 39724
180648 601201
854178 593840
450121 807925
677344 203570
172585 838436
902982 552185
582311 714182
187017 126616
404585 543844
318479 69074
325324 298268
210728 340922
801614 935056
658538 660575
153749 923754
29696 827147
268298 349292
549539 502030
67711 490856
265398 608272
60554 995306
26328 445475
781528 131113
986805 78458
163476 41763
466826 147285
836768 580533
967708 788785
458301 548037
788032 398013
170972 226425
247615 861504
673847 651530
188618 821351
504812 765703
492902 103085
77988 410582
256540 490166
598442 171841
223617 70458
120304 639101
355575 224867
721160 575183
756331 145434
807384 40654
343288 351796
733327 864168
368682 677235
529104 906833
866084 862100
138576 122880
115017 35415
318209 680310
240536 595786
803368 19193
210188 228994
717921 660856
807233 356370
770419 602537
578455 935101
