971633 960541 458
9684 423306 449
388232 867759 525
427318 501034 444
990167 669868 525
777527 649481 504
973307 927507 507
586600 702812 509
839979 578772 525
940013 317981 525
961904 55992 525
846011 771713 525
820484 850638 525
237548 119058 443
745076 438332 509
81253 404328 443
721607 158971 509
814005 71115 509
138039 198249 383
287490 988835 525
130854 522825 470
544727 735890 509
265443 515604 470
733406 515995 509
283372 859548 525
427854 619632 470
926737 735264 525
571865 400282 470
238117 737076 509
113737 717836 509
512614 784645 509
420658 624384 470
861133 161480 525
917951 794335 525
488301 98942 449
762288 852177 525
686845 925849 525
173583 488757 449
812084 464362 509
892959 894701 370
825560 723035 468
244057 38614 443
138211 334997 443
487482 147470 449
166907 795592 509
546028 799709 509
21932 26946 308
222529 568816 470
430851 996715 525
440190 341352 449
26688 131117 354
489962 910476 525
756706 885058 525
521801 299617 470
100404 154876 375
463252 974833 525
281391 473133 449
225111 978697 525
917982 41032 525
909951 130332 525
835043 548064 509
854418 267783 525
802145 367395 509
155945 403244 443
807717 317011 509
617933 165276 470
800590 749393 468
158409 885653 525
318803 975536 525
928957 886734 476
144627 609759 470
828689 109895 509
366428 68014 443
52233 344759 443
628267 328654 509
370453 535383 470
531448 887444 525
735969 358852 509
38073 526679 470
907649 856063 445
254814 843344 525
723485 713042 411
81454 156953 383
492459 730752 509
999145 881122 507
699158 118607 509
193570 248427 443
746291 122932 509
245659 928078 525
748879 113535 509
938387 528769 525
512564 978385 525
679186 583468 509
778224 797160 468
116066 895539 525
604226 395141 470
431262 129425 449
333234 703527 509
523863 669321 509
812693 196843 509
930021 158572 525
103115 347658 443
111261 935097 525
830017 52835 509
647648 161520 509
712943 880660 525
874387 448559 525
323625 540801 470
291184 505866 449
774073 141099 509
718286 452833 509
74834 880208 525
285687 273509 389
717303 746350 424
12667 3314 268
984054 657715 525
440949 647034 509
401833 338180 441
960207 654062 525
477026 592064 470
986497 424318 525
539765 133633 470
273601 779901 509
215935 733114 509
36363 994935 525
875481 936165 476
845569 868411 419
782781 853876 525
882130 132309 525
815513 82407 509
536828 76471 470
933999 907049 476
700221 264528 509
209365 745895 509
279111 821647 509
605267 475182 470
711323 382252 509
249034 755660 509
180529 719224 509
192145 328052 443
173860 15602 383
878621 420130 525
721620 425337 509
429775 235738 449
25289 585483 470
867332 424732 525
999959 313863 525
551522 307425 470
817321 361403 509
285584 573965 470
829746 542255 509
454088 281259 449
904635 839838 445
734283 627039 504
345685 619484 470
700357 313556 509
300446 470545 449
945010 885607 507
867588 894713 445
496870 977633 525
57607 818109 509
733761 143100 509
962221 317839 525
215610 484459 449
784407 576640 509
817444 647917 504
819006 799938 450
445058 699444 509
481558 417554 444
87403 398493 443
734687 402538 509
95131 299122 443
76817 498486 449
411805 508061 444
611720 271926 470
928336 696647 525
529652 436152 470
814218 908103 525
992684 330927 525
423792 456208 400
800957 454742 509
858971 980595 507
265783 336629 407
47928 361941 443
671640 202612 509
732621 319702 509
322929 722169 509
809589 749342 468
300652 772570 509
475413 710204 509
752543 593336 509
165436 75976 383
26845 306588 443
458795 658748 509
707174 479797 509
457807 685305 509
852344 780033 525
918567 634084 525
346622 270798 441
679175 912774 525
117789 72057 354
886414 833814 525
324291 934449 525
540249 395692 470
694776 693815 323
914890 802365 525
514986 290090 470
665317 76624 509
50616 831623 509
755336 503066 509
392979 926233 525
99061 550986 470
611886 928561 525
927297 1015 525
103397 736871 509
38690 881427 525
514151 554420 452
957210 933582 507
179901 685093 509
309665 254453 407
329303 60538 443
822199 249128 509
918426 461104 525
983249 862534 507
840661 803196 525
520326 751816 509
789448 501806 509
717666 50435 509
187042 504338 449
434514 711681 509
265319 489975 449
904607 27353 525
683411 530809 509
483713 179011 449
223171 859951 525
793244 762711 468
759649 718078 424
583567 784109 509
34818 413061 449
493270 339976 449
377974 744557 509
700454 684724 442
791149 729788 468
840470 126541 525
499291 380284 449
974636 899880 507
236185 913250 525
317321 514431 470
762493 495306 509
367323 151950 443
257169 210278 443
316628 709491 509
501500 27283 449
366890 944367 525
320853 139699 443
539995 89363 470
137564 144067 375
631118 625215 509
400874 738811 509
483270 643576 509
40459 787037 509
12574 61712 340
152413 942959 525
899837 437800 525
841490 17324 525
245895 373964 441
180787 11946 383
