791462 235888
31987 296373
924308 732358
496166 989016
748997 312019
578409 531422
664140 184280
471771 468352
595233 613750
614869 233883
246847 112334
952741 883835
870432 488541
359879 21886
118185 476116
78273 58573
862750 734646
879567 206502
362638 799133
564437 917829
148642 154045
826009 283342
994182 695793
600894 799386
270391 301446
751169 522936
652906 858724
38119 319916
17410 89118
779664 789038
505146 784702
144334 670007
866014 477339
228338 786527
280900 555122
216059 315632
10006 563164
366918 922620
526080 664885
291751 718771
815645 126747
337406 740467
227667 927621
581985 799971
103603 536551
205638 55290
912116 254342
120394 614345
969182 135312
80369 692257
378212 623867
436506 78804
31813 842417
799529 681709
167494 136735
885806 467483
107662 654789
882081 978545
747251 998618
287669 61915
241921 66990
677618 827447
560776 793867
371412 725690
602500 183318
655712 489204
74285 630233
314359 201543
995123 614572
325739 882122
830066 402614
271301 908952
429321 361525
574019 320738
340167 167567
837547 425394
364071 335486
158289 996803
339100 30739
962125 695089
321448 194992
190416 479271
470271 760029
244648 346458
724563 980140
227119 271596
927302 638820
238894 337411
646397 704438
724009 45538
275887 495269
265741 857371
40079 233598
511463 891458
173691 716903
129129 232930
688838 395678
84341 794653
312531 686749
329114 658736
409536 250563
631239 897709
99328 911010
113740 216976
431453 909437
893031 903653
756769 729894
779338 681066
23549 613138
831901 376568
796728 522605
788734 53560
843513 45922
142982 725694
812838 978991
247584 419552
700980 35568
218489 430042
950497 977633
105699 562706
670819 117668
970513 706338
359798 517313
918999 155060
780601 322662
774166 19030
16833 811649
587580 233951
520660 423166
471305 974023
996130 116496
639639 239773
836762 797079
479517 187173
267512 153561
552516 86884
302962 771367
516172 600116
264933 845015
871092 41961
517590 371619
162231 680610
340051 779491
927151 785650
216923 358472
118467 488106
206729 191896
390538 612578
196519 554352
435847 324533
853031 760515
299691 249658
570227 738089
18559 794244
194227 420017
74812 989432
257401 152261
831197 42967
158864 310917
192920 581550
191214 822794
237157 856850
983349 783745
29781 253292
810387 58220
266405 967945
415393 596239
481629 380245
298813 894319
282856 38499
556618 487867
759906 882780
645675 643989
714144 403935
308111 649774
853888 138895
91138 659019
315434 619073
541359 722023
101433 201100
176982 845016
951802 175847
622426 275623
507986 635482
480750 826425
134842 920774
185014 166402
549042 536852
21278 425471
266466 137021
344524 734329
790773 350261
141496 748987
233648 146628
274134 464194
273301 797589
285188 236400
49599 397406
182141 482617
902788 535705
206224 238309
23322 677610
632491 953287
604902 747937
386208 894873
923702 875577
421034 724265
435779 422247
65043 743332
89648 771883
430384 192162
887446 16414
433761 981238
415717 278971
931580 520097
