885660 302349
745755 904125
653389 95862
258899 162237
372226 960062
176395 63234
843999 174311
448461 625779
204053 238908
522504 823255
142209 798164
766682 574413
648415 599436
769184 675540
251355 617583
639805 91058
729161 264611
272005 618242
917326 760040
776631 310909
493740 370875
4506 821333
721347 407837
294690 986120
97197 359501
132824 670608
321070 680360
469072 213295
561284 571789
584632 724374
461952 212142
742169 911444
525886 404497
68989 395880
199423 363888
492115 884665
319009 418541
123180 126886
739012 123923
481319 518841
941477 324522
361253 697590
515621 984966
131932 513494
592789 300642
355636 527169
496576 59574
978348 494475
861878 834385
790401 157030
986551 422220
660713 857703
29148 17252
19592 48914
871079 766915
946714 213987
83121 327911
638543 916469
548695 451860
684015 311689
898949 670545
133555 927432
134458 6016
856578 9943
137651 18219
489645 945540
800274 905807
320425 470164
784660 134026
85 489932
628085 176688
648032 198025
883068 464176
556829 176746
459916 87409
318245 943121
609789 77773
835420 900502
196459 504486
106244 290335
645791 222010
188067 404990
265218 906788
152941 93466
570316 558270
718419 92971
461576 77621
701589 334491
732721 580981
42021 734638
228839 937357
489847 917258
716362 437964
776036 202271
774438 371584
154654 928142
167212 395508
561900 180328
273782 272105
693228 598524
221033 834685
202652 670775
180656 450818
715062 348941
240561 986602
178337 70740
43755 866815
359070 135050
354055 570843
233224 811566
808575 592651
107960 2884
967021 606165
448198 615857
381543 953084
84019 422834
221556 422879
822168 748519
669890 598650
91417 483930
4322 302460
444502 280419
408236 40026
984006 619519
650400 714937
914201 121381
824999 35213
853801 602501
4811 994504
848997 974121
79895 604275
449963 859351
317330 164613
776993 824544
623960 314324
446002 131284
56749 125532
492763 662792
541586 239082
323679 516983
669379 776534
567889 286541
883329 797437
240562 499204
555662 722847
481770 26091
367124 815079
588236 191257
195317 170485
135123 327688
614854 608701
505949 582024
818132 375121
821824 416042
47358 251648
804947 83193
531667 296095
421900 723052
13790 7613
752021 870208
600167 608107
783795 553962
386998 719715
230853 51545
916868 108829
985448 182064
958420 609452
453481 115289
797240 730391
176144 137795
609582 217054
128330 64819
953896 498469
858446 875921
495749 537224
623271 616108
157485 212633
93064 945170
652918 218344
548227 823541
337230 173360
191070 366687
470713 859858
297082 589886
716519 166704
933374 465102
577055 397009
452265 142720
903039 12023
405518 243349
3546 41031
805479 205424
980713 367415
490203 733856
466024 102835
756539 934900
913150 3261
379891 610878
73812 646507
591185 656971
402819 761742
433786 65566
603470 842203
219865 681447
670036 613864
627722 363088
807366 145333
598613 978898
93386 643197
308613 518224
564670 738295
104497 693803
139861 786499
262736 210549
202944 15391
621257 192794
965478 957337
208184 831592
933421 691009
668060 923840
300107 865248
107865 822346
976107 744386
422934 679491
354727 242956
47950 347483
129228 549608
375332 52927
244197 157921
419364 536062
34458 543257
700441 72624
801406 856089
936972 417662
428475 232729
896445 126693
285785 551777
854760 17601
714465 356077
181200 67943
367558 932895
626794 705387
242730 818938
873477 643673
723112 932792
497868 334951
382660 241607
863105 873692
418689 159431
236495 778581
849557 7237
309617 149896
871797 197678
123287 144278
488968 963451
357047 95770
764202 308392
100086 714143
90627 159752
143999 41048
58608 930793
608129 823429
171367 505258
564670 584326
628770 768829
373097 641859
297349 252921
743308 643432
66641 96386
694924 450355
913055 108767
269767 921347
38697 201171
130342 349296
333656 330223
619849 288686
523913 560709
158598 224214
983557 176570
692195 632346
103582 969391
765711 156936
146813 809061
20410 414075
920340 598273
82415 895152
138837 331713
701519 705314
994337 581948
662660 607164
277168 846126
267050 551232
843605 746877
609234 217789
537974 801232
489562 383571
366011 137868
527490 534978
623852 114870
24132 369547
