12312 439360
764844 244216
646113 595914
651325 287763
431716 475530
869606 300071
372567 24687
517810 730497
154400 277564
224856 10367
58558 748247
515920 427749
519906 911224
198730 490058
994487 720100
224434 16435
771450 532855
45260 638434
378971 555189
135533 90621
542875 280925
28234 725943
225312 779146
114091 410439
198475 885583
401355 362026
148325 942929
852100 578985
52442 947994
556267 655069
283504 885265
308418 271834
357133 907345
878301 517357
706361 675908
705327 735136
212577 473673
723797 558082
510178 958051
324481 543071
218581 408962
106721 554967
283201 300201
151562 808456
387747 538609
743009 511372
152628 135351
29703 3382
589996 433036
498348 543079
915514 6483
198786 963371
513600 578449
84127 831340
424635 311176
486574 758746
723418 345821
104617 343389
562027 235627
597864 425112
108506 634787
969351 370338
174318 772867
996614 560066
615506 162700
453438 353089
378750 730320
736221 406122
641024 626316
413227 567730
562021 497653
77673 921698
488915 669148
406089 619912
485365 71807
560134 444687
197108 426189
362923 60730
763230 36537
381809 690052
390311 254339
410564 340654
940339 395419
33585 505758
991776 679200
140868 963159
274932 423232
958464 481390
790332 25403
849630 478419
743211 166398
134134 432895
504430 74262
623560 638361
505802 436931
551093 930125
605095 314525
561107 819817
356767 834703
191195 588958
292064 728956
446261 55581
460684 411624
373309 576782
872351 131815
471095 985114
899634 951926
330224 3335
162339 363199
372471 473905
765960 857458
800851 52924
117373 136124
10909 771697
312076 677869
431384 221479
738343 694816
78913 288899
19106 194927
245243 134262
575675 111698
382189 353183
556325 382935
354094 821404
279065 724345
427890 535252
258335 488267
915592 67862
633621 449107
915342 611297
902356 640697
987789 831939
945738 987992
911873 663861
94754 426183
397081 33186
979737 710620
641746 225545
256014 531982
498111 224270
200686 210759
861626 914461
793007 311292
180389 174143
4428 281178
34168 563947
324153 975278
161840 683419
139281 9210
308742 98596
390177 42419
332938 176866
607669 530360
245224 45572
153875 440757
264104 243003
666346 338170
472791 486699
617220 865889
301379 675696
999736 30737
278167 455447
450897 95940
104195 96050
770286 947183
904357 74154
200289 306797
116669 621023
837822 769527
114552 464746
166140 381478
300165 267684
592868 98132
379998 170475
336610 647565
338625 76668
590611 263964
621272 521699
75232 300939
281096 232655
904030 426078
348408 988627
924007 311791
64969 336825
374638 551456
414099 570268
181115 497702
433070 502711
356597 347344
807077 484925
728107 914756
789252 597000
371186 275395
271178 346760
539198 314112
206963 800498
368723 377547
426467 603219
266211 283278
552201 326088
693874 792582
470875 389778
964646 173490
948494 844240
77601 476714
648681 579172
392443 325355
105367 291787
480761 951670
30000 955289
521812 55282
354378 915074
308571 816431
870066 650331
521370 170672
665088 661598
341920 325843
301776 209796
886359 547242
986217 995189
312725 296857
999794 493367
211758 60363
386633 294185
192133 443465
330587 224057
773363 320119
89978 441972
861305 69532
925780 290420
713315 105931
928336 823859
72712 753262
42229 234336
176389 887144
397674 6584
517434 218530
655685 69246
292977 67106
488073 154064
656780 60720
220560 152600
239545 117
527637 596017
576568 431665
121513 939575
621461 911506
153813 633456
248892 128172
87367 209406
582170 584418
764167 846666
842138 992307
365093 218248
657347 159714
689840 314687
303419 469809
853965 169317
611550 685418
868656 858692
242812 967800
662973 160699
105771 26615
617677 587590
640797 511894
273179 383442
850138 749958
517548 417122
726735 86535
121935 398980
352945 806620
315445 366363
21436 404423
180593 877086
215667 264721
586058 647437
170011 99716
506065 295059
954725 692089
181201 758256
198238 55152
568440 957076
407103 685189
237214 321729
839437 632348
844498 985011
202024 535152
542434 358729
466049 909080
261794 73445
301785 322051
502099 559126
671758 573820
687414 230688
246773 124116
