289371 650912 509
496174 439176 444
955790 872464 507
631110 664485 429
15450 458749 449
482384 811687 509
285058 441930 449
824429 909197 525
353553 121099 443
95098 540047 470
630097 273100 509
672119 552562 509
350510 567785 470
590573 394499 470
342424 601389 470
351582 746998 509
300600 863409 525
650502 623196 509
256494 190427 443
838136 489012 525
422272 484689 444
684877 422717 509
694943 340610 509
825391 467835 509
468259 539589 470
508557 374381 449
324480 49401 443
898074 253261 525
45136 289370 443
345057 934229 525
754195 796107 468
480843 371534 449
949273 365813 525
619790 505574 470
861211 551252 525
345680 235291 407
698139 474991 509
807384 802332 406
87556 619403 470
307841 995098 525
484544 649033 509
942993 82475 525
389665 453418 449
149485 70538 375
37932 984309 525
324292 699012 509
991164 584274 525
852321 535918 525
705158 99348 509
287583 733810 509
137218 627224 509
176938 116328 383
818396 119293 509
418064 909457 525
475967 657190 509
289142 356565 441
792409 704208 504
920637 349092 525
607735 950829 525
82944 828174 509
304918 917430 525
651556 30684 509
191418 975348 525
497799 325510 449
848106 169941 525
868282 244049 525
596192 758008 509
928624 301968 525
109989 497110 449
503081 26951 449
949395 423586 525
612431 637976 509
560625 346475 470
660046 261232 509
437870 815335 509
913681 702368 525
934993 586576 525
219494 425368 449
887628 2883 525
5279 503605 449
569404 90880 470
546676 520219 408
584190 340725 470
909019 205148 525
392430 567183 470
156267 477057 449
308706 635990 509
622260 583498 447
982552 24920 525
747956 580378 509
954720 690193 525
888222 564310 525
308123 514605 470
254239 500212 449
906714 590549 525
835888 858731 525
160516 251032 443
769755 211187 509
36274 320967 443
813541 856423 525
433631 392373 449
98587 369254 443
409537 506966 449
601903 391712 470
476109 965314 525
994798 173195 525
217557 27433 386
685739 253125 509
82292 969118 525
548552 471443 470
35819 203090 383
520676 161170 470
205411 706848 509
283326 338643 389
994919 536883 525
749190 199190 509
174756 557462 470
638379 355250 509
840026 615106 525
602643 192555 470
415884 332238 449
717837 312239 509
719729 748751 424
638384 742365 504
477566 43261 449
885570 590133 525
986318 999681 440
546127 939638 525
337508 600659 470
468162 616954 470
375423 984760 525
603063 586033 403
174524 564718 470
858577 901110 445
362236 63565 443
325658 413243 449
633834 719484 504
740380 533415 509
713412 103590 509
644678 908292 525
450573 999883 525
481705 780449 509
715381 390400 509
441862 858856 525
489425 787495 509
195531 669626 509
304386 950096 525
174447 806413 509
716273 675837 504
440351 616622 470
547464 945849 525
676 505236 449
213509 208112 355
145893 302459 443
915991 416542 525
262434 869897 525
981150 980698 427
661020 248138 509
155468 623694 470
175550 856730 525
148400 569069 470
346643 700023 509
18262 671096 509
716486 105955 509
331697 175853 443
633916 470129 509
482747 659744 509
220784 951428 525
834182 531214 509
517849 972060 525
107866 671761 509
569961 813417 509
35393 608130 470
596835 485559 470
258368 873899 525
872979 811860 525
61150 931726 525
403182 171469 443
526481 427410 470
605720 441107 470
988697 168869 525
92341 308027 443
188085 118792 383
886976 751495 525
929613 114726 525
313703 306031 384
351775 438001 449
521716 922455 525
736134 226861 509
368745 592854 470
870574 943848 507
929153 82325 525
730911 981247 525
566209 47397 470
587814 343733 470
664711 831547 504
576080 949511 525
222265 8260 386
379657 834262 509
669063 977463 525
420315 24524 449
540603 88919 470
626586 297472 509
709766 445620 509
444672 891439 525
388005 30400 443
467778 670653 509
128776 76490 354
861456 702985 525
163911 649135 509
741435 443800 509
8323 86247 351
434501 178558 449
578113 823008 509
230045 264708 443
654736 177573 509
511451 101745 449
112092 748925 509
646138 578763 509
870061 330074 525
737408 160126 509
