18171 660699
42380 683052
97336 50942
831736 384449
84632 936766
112020 450301
955738 187648
672813 397400
280571 505498
165418 249057
212617 241795
699032 563943
588512 559387
740922 629406
746734 462539
511623 351492
237143 484247
658121 244925
955643 276324
949762 345255
775491 589264
994835 444484
534891 37482
241801 592956
883449 604825
981357 92687
227752 525601
991950 105892
43558 204159
81925 258610
318603 225520
578036 905544
738015 234599
180239 478930
950529 129379
773516 864586
583006 372470
695155 291184
480380 236239
947135 190840
21772 949430
690215 234351
386038 125404
518698 733785
609 538631
149687 146009
609622 972133
112622 809661
752614 404575
447001 367381
389902 11252
508875 767423
886314 337994
300076 990656
260528 622042
605648 90645
530767 849557
369640 220135
229032 4811
803480 720690
486834 488528
320816 377799
36666 341268
785942 927271
241226 813205
752490 280385
390182 798079
917039 845024
257882 712394
647775 508797
967304 972978
72803 257579
175442 137039
134965 421954
305077 696178
466293 22126
857981 684529
183004 390569
543482 597639
404977 309971
771273 861020
915101 674885
387107 629291
933816 406602
191393 404095
105373 110242
801722 730981
873660 726242
364759 189601
581732 888401
217325 253804
523259 828625
852606 255831
356103 171522
181114 400062
287389 811309
34577 925857
553848 627966
51873 518299
385991 161181
704839 313899
103183 575035
958768 253110
535284 973459
182296 557929
262250 510312
470518 258777
236029 94999
882446 263463
774094 928212
807629 385399
431820 843961
902096 844910
188565 427303
187231 597879
76557 752044
986073 895115
733858 900272
525383 665981
525889 538359
426406 725961
365793 880295
118269 979427
577697 95934
822682 834591
54008 466837
675619 25548
441496 702348
814233 719520
304162 631633
528707 828734
309657 699853
742515 779154
74482 612883
223935 990334
392705 7683
479228 815447
499254 298235
29079 44856
419465 383680
59156 688596
681903 137714
249169 978447
719702 663338
235563 893508
124288 809319
615862 947822
679522 136770
64175 432676
923890 646902
741135 391288
312021 962139
244988 239504
128205 988923
354566 65872
258596 38471
891554 131168
900835 892744
748666 441802
519909 489333
520627 953531
651007 986173
248522 67054
918176 982474
804062 64415
158680 702642
801821 862302
60380 748972
311918 521232
3929 613250
789434 436249
217172 730945
18337 759747
342728 284373
71210 711410
715794 72266
581460 663107
403855 373168
215043 117634
12418 483425
138709 412457
869050 950406
686193 8669
320725 469296
399002 583460
5007 91701
660777 960284
212718 927054
95134 475643
249488 882899
672521 468064
112224 771932
968795 862773
18244 773491
965364 535518
430200 858852
835811 377447
994156 829977
511379 277392
204960 754763
462914 589779
306288 708881
564126 292246
601488 836444
53076 500259
763520 847372
434651 916280
447699 977152
555472 577562
897672 602271
