18171 660699 509
42380 683052 509
97336 50942 351
831736 384449 509
84632 936766 525
112020 450301 449
955738 187648 525
672813 397400 509
280571 505498 449
165418 249057 443
212617 241795 443
699032 563943 509
588512 559387 434
740922 629406 504
746734 462539 509
511623 351492 449
237143 484247 449
658121 244925 509
955643 276324 525
949762 345255 525
775491 589264 509
994835 444484 525
534891 37482 470
241801 592956 470
883449 604825 525
981357 92687 525
227752 525601 470
991950 105892 525
43558 204159 383
81925 258610 443
318603 225520 443
578036 905544 525
738015 234599 509
180239 478930 449
950529 129379 525
773516 864586 525
583006 372470 470
695155 291184 509
480380 236239 449
947135 190840 525
21772 949430 525
690215 234351 509
386038 125404 443
518698 733785 509
609 538631 470
149687 146009 357
609622 972133 525
112622 809661 509
752614 404575 509
447001 367381 449
389902 11252 443
508875 767423 509
886314 337994 525
300076 990656 525
260528 622042 470
605648 90645 470
530767 849557 525
369640 220135 443
229032 4811 386
803480 720690 468
486834 488528 382
320816 377799 441
36666 341268 443
785942 927271 525
241226 813205 509
752490 280385 509
390182 798079 509
917039 845024 476
257882 712394 509
647775 508797 509
967304 972978 458
72803 257579 443
175442 137039 383
134965 421954 449
305077 696178 509
466293 22126 449
857981 684529 525
183004 390569 443
543482 597639 452
404977 309971 441
771273 861020 525
915101 674885 525
387107 629291 509
933816 406602 525
191393 404095 443
105373 110242 354
801722 730981 468
873660 726242 525
364759 189601 443
581732 888401 525
217325 253804 443
523259 828625 509
852606 255831 525
356103 171522 443
181114 400062 443
287389 811309 509
34577 925857 525
553848 627966 509
51873 518299 470
385991 161181 443
704839 313899 509
103183 575035 470
958768 253110 525
535284 973459 525
182296 557929 470
262250 510312 449
470518 258777 449
236029 94999 443
882446 263463 525
774094 928212 525
807629 385399 509
431820 843961 525
902096 844910 445
188565 427303 449
187231 597879 470
76557 752044 509
986073 895115 507
733858 900272 525
525383 665981 509
525889 538359 408
426406 725961 509
365793 880295 525
118269 979427 525
577697 95934 470
822682 834591 419
54008 466837 449
675619 25548 509
441496 702348 509
814233 719520 468
304162 631633 509
528707 828734 509
309657 699853 509
742515 779154 468
74482 612883 470
223935 990334 525
392705 7683 443
479228 815447 509
499254 298235 449
29079 44856 324
419465 383680 449
59156 688596 509
681903 137714 509
249169 978447 525
719702 663338 504
235563 893508 525
124288 809319 509
615862 947822 525
679522 136770 509
64175 432676 449
923890 646902 525
741135 391288 509
312021 962139 525
244988 239504 368
128205 988923 525
354566 65872 443
258596 38471 443
891554 131168 525
900835 892744 401
748666 441802 509
519909 489333 470
520627 953531 525
651007 986173 525
248522 67054 443
918176 982474 507
804062 64415 509
158680 702642 509
801821 862302 525
60380 748972 509
311918 521232 470
3929 613250 470
789434 436249 509
217172 730945 509
18337 759747 509
342728 284373 389
71210 711410 509
715794 72266 509
581460 663107 509
403855 373168 436
215043 117634 383
12418 483425 449
138709 412457 449
869050 950406 507
686193 8669 509
320725 469296 449
399002 583460 470
5007 91701 351
660777 960284 525
212718 927054 525
95134 475643 449
249488 882899 525
672521 468064 509
112224 771932 509
968795 862773 507
18244 773491 509
965364 535518 525
430200 858852 525
835811 377447 509
994156 829977 525
511379 277392 449
204960 754763 509
462914 589779 470
306288 708881 509
564126 292246 470
601488 836444 509
53076 500259 449
763520 847372 525
434651 916280 525
447699 977152 525
555472 577562 421
897672 602271 525
