211247 848248 525
566014 320817 470
159876 557321 470
845345 546691 525
467390 149503 449
430127 715424 509
380244 228146 443
645453 790445 504
267749 401053 441
969587 566756 525
586860 686876 509
389194 805631 509
223161 419259 449
307900 60840 443
308406 187072 443
916945 680672 525
41267 151839 375
737667 207900 509
840211 436596 525
255728 500096 449
369665 340489 441
999363 671925 525
306059 945964 525
659734 887480 525
530077 33759 470
503822 731689 509
31640 49433 324
837281 690582 504
815958 816796 344
50053 568005 470
239286 402235 441
32125 452895 449
161491 190769 365
945090 236331 525
526607 764811 509
669363 490346 509
535895 261510 470
447865 19864 449
49740 447929 449
530761 98186 470
837409 451031 509
646184 954424 525
817292 844592 525
401734 994625 525
67762 442578 449
805439 962187 525
12870 955664 525
126583 446043 449
346534 400933 436
380539 526983 470
336543 962223 525
616143 334251 470
853238 760984 525
806223 881101 525
971045 156350 525
106477 189171 383
281298 180325 443
588504 272269 470
282534 765732 509
103816 255725 443
548003 745677 509
36373 613721 470
319837 548302 470
776162 335689 509
242643 294207 407
351066 342250 441
421156 723624 509
482039 120439 449
581765 891019 525
556860 711768 509
390650 964311 525
294797 404121 441
394463 523127 470
662697 422256 509
835335 533518 509
242179 200569 443
841714 257401 525
545536 940036 525
976640 524711 525
892941 193931 525
399504 356167 436
79045 732979 509
451905 560283 470
652161 604139 509
787320 137875 509
207684 943462 525
266699 884772 525
766988 698135 504
392687 370328 436
65342 628286 509
374093 277476 441
303875 981397 525
150509 194248 383
393292 739763 509
613527 906176 525
343583 66936 443
460901 288804 449
855045 325139 525
915783 326777 525
172337 138185 383
629265 469981 509
114370 887009 525
834209 765167 468
576253 837380 509
714439 469637 509
151340 280781 443
902441 389717 525
171803 172751 303
68703 196086 383
652355 902715 525
372075 349111 410
893578 844012 445
419594 18026 449
224666 312637 443
460949 532301 470
522000 222437 470
30254 71202 340
719762 654954 504
846930 854006 419
202928 852690 525
317013 734031 509
788980 261240 509
435995 237138 449
406380 407115 343
386352 30462 443
375180 259794 441
157970 623753 470
577018 140595 470
609223 528953 452
337784 59920 443
893855 842704 445
668012 571694 509
681877 147637 509
326441 930709 525
693812 562661 509
65598 52573 335
756290 687476 504
675756 31823 509
298701 277539 389
402054 585285 470
411265 843301 525
619573 885302 525
993755 15427 525
706619 239106 509
646661 352974 509
318558 504544 449
441091 816164 509
787090 394388 509
859555 17969 525
850247 485908 525
594076 77867 470
66869 160273 383
593966 16042 470
888203 294816 525
497221 291182 449
455245 51244 449
952500 709223 525
161029 320162 443
16515 186693 383
408113 773010 509
309421 51378 443
350351 564524 470
608283 836534 509
369911 332109 441
789733 287444 509
444864 127077 449
780461 785635 362
592234 256954 470
230861 380434 441
806504 360183 509
976045 359754 525
554095 687170 509
550526 894561 525
338061 647928 509
919260 668904 525
646247 938102 525
308004 613987 470
274581 746949 509
236658 586574 470
820590 834938 419
730091 708372 411
941170 94476 525
88865 144593 375
253799 670 443
233525 829955 509
338059 138697 443
51946 522588 470
480891 888250 525
404466 565069 470
721741 358881 509
459720 209677 449
971269 638224 525
211685 354288 443
600135 807785 509
723744 483546 509
999896 143685 525
699281 807771 504
232419 884575 525
840250 820733 525
255102 414922 449
90773 722287 509
327315 943752 525
999346 518872 525
802731 542443 509
996704 108335 525
823814 92383 509
192648 515825 470
651639 180096 509
156765 423559 449
869415 443793 525
338555 558554 470
205683 558906 470
397370 812043 509
479805 29881 449
132714 223644 386
736500 72368 509
797227 272220 509
809832 85469 509
422807 452015 418
890423 305272 525
808801 161766 509
253518 921408 525
962583 104800 525
538838 589964 452
117485 289081 443
144748 671424 509
782109 30240 509
848854 590615 525
796117 818426 406
65238 953139 525
415744 836763 509
746760 840861 525
112931 677420 509
214319 143240 383
30358 982668 525
455084 44994 449
726496 447784 509
950375 358225 525
877784 923077 476
746270 65339 509
717018 139579 509
818680 866671 525
599552 537314 452
657938 896973 525
220631 274767 443
859069 158908 525
938974 328107 525
175605 443526 449
370046 13709 443
252359 268935 407
329121 734884 509
457011 460266 338
478904 231171 449
218265 861471 525
952856 493626 525
914984 943108 507
659278 167304 509
551952 297474 470
