541463 421606
60725 819910
913552 984088
758524 723105
145521 743086
411727 178399
480571 571459
214351 378200
562921 943339
158908 828613
921256 969291
666077 630725
210925 47788
406639 446735
813354 678288
608760 355528
893905 408893
222346 920781
364619 762448
214499 379971
758119 439406
344658 764225
633877 307458
348283 594187
255598 343951
482905 659795
82950 994201
288630 205012
241489 583954
891913 27640
103441 580790
227210 669363
15723 704252
245306 572313
916635 315835
774204 218886
735114 921086
435586 669434
190305 101143
88490 268911
287555 644490
442660 753593
963184 974388
980623 495326
932358 35376
302120 20610
13818 832789
418648 7875
946389 779090
812422 421110
884463 439561
747157 169118
516500 560032
451217 715840
550303 708552
730081 221310
838252 421670
556850 520694
496101 821812
507062 258337
351735 636072
345743 109260
577127 419407
184717 820356
26990 507330
774806 45820
177778 458761
858361 602790
451438 570912
722958 846011
411809 176692
141070 651886
652808 734830
579169 449255
190226 843990
276453 683749
645220 382389
704748 422513
713900 982722
692783 982177
804178 154337
871366 799666
820488 776659
624180 926972
374334 833275
489322 447734
692400 571859
758047 231751
621904 819127
330099 282898
262586 980532
414067 995787
7659 260320
805546 417696
855400 460794
609550 623550
239244 521525
555308 993654
875534 451193
444022 815579
775180 77024
617147 760325
711532 527565
741559 422208
704620 514673
602069 137808
954941 938380
406015 315290
410776 487695
790021 533960
963752 923312
855765 120132
205249 720663
595700 123046
519655 635892
866052 621547
107956 231563
370356 317466
784931 811367
280514 47440
292539 931076
849064 333190
941274 799862
567126 711247
102590 709733
294786 543490
343890 780016
89168 297556
499662 415056
138471 760317
423614 36271
857301 648266
326914 693399
277638 803788
800235 220273
191993 843688
503232 95659
191971 205916
849135 909398
668521 93894
694002 116216
181678 219453
536241 293556
843420 315961
945926 533134
425767 849575
736165 890428
944373 144281
811995 934251
391513 137601
344260 498566
358650 620622
146225 37872
937721 43977
48067 696204
260494 892172
175753 228510
204304 118014
440597 737730
234553 330244
890494 18988
426542 717265
29018 716044
662872 209777
276331 683785
577185 477570
382704 951349
219964 67975
970336 96933
689408 998682
6240 699528
726139 130075
309349 202166
901410 717905
765481 876167
766569 618852
20997 198065
871278 324308
385679 147884
157887 613365
848832 5036
435467 544634
997890 923876
691094 495751
629727 250878
223504 384922
972000 285349
592961 960041
90349 550265
327321 525728
667054 386102
510395 390519
34752 36868
288594 348750
485724 349642
835491 350893
533713 106083
740937 458524
604931 485192
189415 853951
898081 949478
241869 457105
989443 745476
927097 289223
373155 825976
228711 220541
807740 439643
652476 730069
14960 210065
319902 701390
685380 5432
693442 789306
516819 926456
