572007 447323
415628 507762
32466 858917
144936 713965
674136 194730
568080 138661
507023 824463
64710 178298
808483 777769
164639 379955
289789 965473
281159 736198
212280 513128
919930 888396
358111 847395
573366 750928
485445 647258
54580 425952
371049 448253
583152 78832
812258 175876
863790 946321
532362 723979
52852 433272
100679 430333
61746 127005
693598 171007
837816 701827
325870 267025
244332 446052
504405 445852
80140 216384
546953 754534
597086 660058
325967 412867
242932 61816
123460 126585
269833 175123
130421 929763
963993 753581
497957 525859
463817 797490
256348 756015
675537 536004
917099 829549
162103 414118
725007 513828
864317 20514
287786 68858
969333 474156
162203 231357
753790 998757
574057 808732
529917 217434
492848 919360
126748 746795
666164 949225
41760 671533
689874 833145
587508 617211
650526 254623
716965 70814
524351 255689
831432 71109
920354 688815
183391 998343
86010 837083
152005 703720
33626 60678
588845 192523
271634 883102
415096 27875
341523 950601
564700 968357
709642 561247
523192 685809
650687 191787
272284 958506
215543 815222
512176 398604
846938 534043
1569 587565
127846 60482
591763 526551
142110 830062
117577 531479
373559 26353
389182 608134
504146 257551
720031 746439
659021 868948
572961 420615
925997 630509
455627 846955
424011 959057
270084 385103
567406 83222
66349 726431
470028 769336
235530 111873
804514 168566
412507 252319
619241 322938
839906 473488
892557 830083
979298 773271
245122 53124
779863 893734
210802 935000
972524 296621
16906 396212
746013 960608
480363 987295
156993 334086
310440 236181
779383 76826
81750 596337
489144 9386
293251 682469
493168 921512
933730 397138
421973 564945
639319 375769
447351 535266
395679 303299
503209 742240
168706 612959
816588 557480
342995 69299
427998 737314
112373 971767
247108 68471
391357 384881
238377 497323
699750 194941
488731 273602
740410 216654
887099 879132
63967 255460
148415 789217
612477 77671
899208 357960
773203 933475
980808 34796
721598 306573
739792 77905
812313 329355
540940 666247
910954 566811
467328 90363
940432 332883
100194 20823
407481 131020
461273 145207
436117 813209
259757 210785
263700 855905
355614 963419
405283 604683
231202 43426
429849 738675
959191 315356
286846 193984
624097 984098
588321 242093
72540 115312
240312 364041
93231 352098
848111 747007
193514 396175
337244 206629
7086 133000
710459 898857
457267 515131
444022 749956
818607 443533
229044 742082
541788 779818
108649 664013
867718 593290
401853 331888
828291 91187
612964 453066
812623 583795
517409 863350
747377 690999
460412 713848
315689 317998
423773 540662
169134 440675
152248 519975
668467 593607
681114 342629
616050 586372
284819 895466
778626 291476
688749 24787
553631 295475
195011 611187
684705 361694
999768 260469
907414 810132
757128 979991
9200 843228
308750 316994
201617 418765
671925 315774
989315 754057
781893 264675
342256 172946
824112 87240
450854 437745
338910 817953
694026 35724
746492 639301
850980 299033
764557 369361
621366 12358
846485 401665
622711 956656
549440 984094
142167 728430
640567 845077
166918 217070
62465 757812
325696 392587
274089 782702
826907 228559
27943 8952
437897 204085
593093 192603
664919 743803
425796 996535
442312 28528
743680 73446
357460 677205
133869 647694
706287 864439
958623 809985
879445 71333
337762 398158
47661 910778
921091 852413
655409 422001
734197 475179
121330 557342
4617 93774
565922 335703
629995 605573
525159 392546
