82384 422045
716119 437687
635406 781262
586385 424709
812714 218979
922421 89848
823432 423034
61673 457305
696774 224484
302004 435503
220541 810445
310289 239206
175951 570775
863744 973182
364079 384563
632394 887339
287319 536457
938808 687572
910230 355179
842858 956937
772655 768583
946607 65307
144098 929679
147470 353818
893156 170717
551000 66792
348039 841819
198058 760712
141255 541667
739418 965805
662119 756426
193659 314350
464824 995232
572264 272430
649949 973330
564050 805889
529951 876946
719390 466475
54182 311094
52086 429829
686099 545475
799745 476396
49985 291234
177645 748083
248754 830883
294766 794110
124104 5878
103232 233040
584275 50638
16924 23014
244369 788198
378267 566272
147367 887568
444327 165806
984117 576037
369391 868953
314815 269112
83402 998650
703695 46673
583257 668736
605153 418590
396940 823065
889334 64898
369177 992665
909325 2645
495280 94561
425887 952357
982193 558983
921580 53481
298274 228065
591151 327375
865772 429287
101901 696396
84390 942772
329328 801632
928662 55519
772044 99895
432986 104398
743190 863930
874447 535702
368777 619310
345679 234085
601660 258543
646463 219436
69667 263955
438126 548755
922104 651100
360457 979881
131310 251422
647450 3762
801520 797787
251723 57711
840957 522998
61427 843545
968923 638315
540228 659875
526283 928593
63062 706312
793961 780130
747035 454974
653332 238079
402267 827166
28070 126775
661817 159443
881796 247103
187035 49773
866139 85240
285694 399318
511046 488693
200945 816965
659700 118324
911969 499589
637492 470292
949094 52627
625661 436854
510972 787426
330448 439287
990720 195958
565677 80619
913138 291131
480002 53545
448496 644138
969274 865979
890334 664359
338956 675784
836598 969474
722867 26418
909990 708525
918347 692372
213399 155836
772223 793298
810015 191639
85198 155872
784698 540879
757500 710668
227187 625033
278682 560596
473436 520361
359822 220058
412534 541867
340334 80303
526183 18925
960842 595452
989946 981932
94776 952155
617454 876613
133795 365320
899355 259791
414520 45188
93225 191088
357918 187687
824550 984228
338998 117179
182743 571770
343542 393978
868138 836055
964395 255445
224523 126619
114297 473290
707718 361970
815969 98103
198087 285736
556803 576814
494347 140050
551114 487966
475122 315617
62912 401432
654119 313512
718782 938805
253202 599215
477608 548781
662689 175177
971276 380789
335129 414678
583848 148698
565703 944929
260192 322421
179450 379896
907196 279640
204600 840244
9782 162711
730004 766886
529407 31789
247573 174547
722040 804695
738903 497006
92597 88755
758309 220831
137065 986876
112197 516541
703112 31271
302396 341199
694253 152559
616805 18275
244468 145253
653264 909775
205452 469389
360580 372555
48246 332990
452998 945099
145759 421874
227411 399762
791899 254160
601129 696192
973687 135416
236512 721499
261559 632929
149559 303710
103733 492800
908667 811418
162210 631545
831784 703283
227417 837105
708932 941137
974161 825137
558758 643086
588707 15021
999536 469934
84616 271029
288179 506289
16314 120971
128220 352695
961690 664120
816961 116570
51933 273534
177899 10366
792018 879769
181030 949760
767494 477427
616076 760545
317605 31486
954473 436823
660713 963053
769458 538343
