347555 978869 525
688558 918649 525
807435 295309 509
311356 694860 509
344609 178675 443
508764 696721 509
1410 53289 340
938310 811598 525
355681 131172 443
298917 660824 509
368562 272918 441
940760 850210 507
9524 627733 509
591207 40425 470
67014 979196 525
116002 116768 305
153603 558131 470
541378 168262 470
459876 214723 449
652780 666427 442
666415 281955 509
555498 466137 470
452674 874038 525
382571 704791 509
66293 917974 525
235833 237108 337
588165 950123 525
958986 769637 525
752244 738171 424
721686 314309 509
446722 417517 418
15068 30745 308
279366 666556 509
731494 469758 509
124383 359939 443
186256 423758 449
614709 104617 470
753973 518391 509
420801 179238 449
856606 758881 525
328976 677363 509
679843 259930 509
470518 814881 509
378677 549372 470
997493 909172 507
801275 661681 504
203997 887063 525
185671 904079 525
400177 493021 449
807203 897405 525
233655 801250 509
324232 867183 525
197378 361038 443
623713 981760 525
250807 42179 443
430553 473227 444
212282 672266 509
874786 472716 525
326155 142001 443
330189 850118 525
344301 296406 384
89717 549537 470
984190 903141 507
551538 784811 509
485379 335506 449
249766 707999 509
207405 192 383
520124 937852 525
791018 678232 504
627213 520646 509
336351 780101 509
953363 557543 525
142443 312090 443
441535 419002 418
20960 575735 470
500852 280401 449
596129 371884 470
310863 130083 443
557509 673595 509
840498 45296 525
856533 43385 525
540082 309538 470
749331 647918 504
794986 736803 468
384682 178391 443
259017 799566 509
849722 405282 525
931909 310154 525
361275 808014 509
677759 501710 509
279549 953210 525
734281 411298 509
123859 287610 443
132545 180877 383
475337 247757 449
102543 104925 310
992384 467524 525
937020 99701 525
964016 649436 525
231220 558485 470
921927 260148 525
461945 983724 525
743594 213156 509
646838 599244 509
490685 333425 449
588230 723994 509
518759 102707 470
74997 923080 525
393339 251530 441
736002 904143 525
470181 623271 470
296666 860279 525
460682 142268 449
601962 586824 403
149809 592025 470
213505 82631 383
484164 212831 449
356009 531179 470
934667 118160 525
240300 955290 525
392242 605133 470
866284 912104 476
259945 501519 449
214901 230263 386
815892 967647 525
100698 424133 449
162421 578538 470
753796 364954 509
2992 484560 449
542832 172371 470
135265 175414 383
429991 252816 449
599560 127174 470
680063 92016 509
738674 247887 509
241770 862977 525
524669 934872 525
423518 872826 525
477955 800144 509
676045 782234 504
612754 108554 470
773254 722810 468
788785 839538 525
443264 210734 449
322152 454571 449
968134 616964 525
499365 934134 525
113104 658529 509
151600 487956 449
374828 784468 509
331896 763765 509
658539 402591 509
481190 631897 509
308047 382785 441
949267 157188 525
10053 399099 443
613266 470363 470
998951 303107 525
80003 120143 354
293185 777241 509
445835 811355 509
796664 879758 525
666858 770411 504
471000 601081 470
822383 795972 468
862227 526364 525
529924 89140 470
199541 292617 443
229747 196703 386
84559 921880 525
349681 358311 379
600117 611298 403
227839 93521 386
27036 31516 285
643409 317955 509
322814 621664 470
856842 767102 525
169653 150156 383
858210 821603 525
125771 267831 443
18726 903558 525
299973 628431 509
193788 157953 370
249782 161510 443
447971 672748 509
638732 869567 525
866811 821444 525
713111 51165 509
534979 150723 470
499937 214513 449
749825 502533 509
3042 307704 443
10049 902422 525
204752 13804 383
967974 84427 525
194533 962912 525
142124 584758 470
993656 157888 525
270280 581481 470
678621 945448 525
460924 741511 509
984901 671617 525
693344 461113 509
421998 719388 509
902863 915142 476
452290 667517 509
62643 219300 386
757560 66698 509
720876 381309 509
893173 626574 525
66981 297792 443
548662 226496 470
939536 489979 525
343222 668437 509
418728 645991 509
257023 567506 470
984796 569102 525
444152 364741 449
218963 71329 386
27165 308189 443
75290 889550 525
834242 889981 525
664132 115861 509
512145 880018 525
197568 829684 509
515486 697572 509
509307 933469 525
660895 402635 509
960805 851646 507
26244 877491 525
157459 776231 509
755411 505484 509
299710 970896 525
576413 767249 509
876926 347778 525
896847 999166 507
185612 337927 443
30944 805814 509
4247 77801 351
468188 819063 509
619698 501768 470
72862 402872 443
545995 828268 509
262429 984757 525
331392 348777 441
972842 115037 525
631761 205115 509
971184 844397 507
517350 787134 509
611929 766767 509
380080 904318 525
220288 854924 525
514852 429587 470
707875 194256 509
881692 511258 525
843030 786056 525
178058 739719 509
873414 643344 525
708837 848780 525
207593 573866 470
744825 126479 509
516561 596109 452
877782 302956 525
477885 448792 444
902769 258363 525
4016 781195 509
358525 528137 470
