515119 246795 470
261151 10275 443
977385 925521 507
149972 70318 375
516445 919223 525
922029 314815 525
618306 219888 470
345155 80038 443
642805 877187 525
789301 164023 509
648922 797458 504
670437 557928 509
407690 318259 441
516354 168980 470
641582 528189 509
663450 920264 525
902581 295405 525
715531 283696 509
960568 688018 525
386344 41413 443
687582 902314 525
968554 74409 525
972076 213528 525
769397 475925 509
762373 932948 525
240246 236833 350
293898 882525 525
802360 45717 509
483602 622872 470
326012 274486 389
900830 6924 525
451676 864279 525
371132 450155 449
848342 953283 507
939924 375876 525
269304 696911 509
63742 212897 383
475321 838883 525
491551 656491 509
223313 999810 525
649926 686038 442
330806 820346 509
735837 188870 509
441014 250721 449
872598 186346 525
420707 379014 449
128606 882860 525
775298 245810 509
32432 135023 354
53552 254945 443
871030 707606 525
249959 828322 509
865110 428393 525
912216 445276 525
146168 928092 525
781246 731694 468
677626 212083 509
295632 730163 509
799109 642045 504
739349 244057 509
116106 993303 525
58460 766954 509
870373 980589 507
327666 766935 509
325219 712487 509
578619 2168 470
468574 670692 509
370184 596300 470
114185 874894 525
481281 634313 509
189189 551378 470
646664 259596 509
444155 876256 525
814840 155303 509
27286 652529 509
70197 758084 509
87113 457927 449
353961 742047 509
579018 721761 509
291642 61954 443
645985 357944 509
7631 743638 509
154226 517485 470
594843 757261 509
28161 459943 449
376692 921329 525
123041 379199 443
832328 506250 509
579165 715656 509
869021 371338 525
426154 912464 525
253731 893180 525
842646 497294 525
55409 97643 351
841333 539320 525
911269 173772 525
919568 883247 476
433360 474446 444
474027 933053 525
688033 832657 504
629327 196194 509
622271 963193 525
513950 875027 525
534336 240578 470
816400 527275 509
78589 149488 375
107944 328672 443
623801 562350 447
448184 942652 525
901090 9485 525
704949 999409 525
930738 490570 525
607311 764576 509
615385 209675 470
879009 949020 507
785740 315760 509
359032 129383 443
322524 729985 509
363870 960467 525
765140 616706 509
773304 501017 509
617547 973165 525
707702 166021 509
739896 160661 509
815710 692643 504
844594 179664 525
550608 771333 509
325811 921824 525
725908 510249 509
794316 696037 504
621707 164316 470
360887 54099 443
688440 196473 509
657963 78661 509
740947 307576 509
677295 649764 442
266847 362198 441
166867 60915 383
787271 825308 468
671049 764058 504
160160 132062 383
193699 517133 470
13975 228231 386
442806 389673 449
431792 310904 449
386500 447745 449
353853 947231 525
280719 822538 509
833614 707957 468
422716 782520 509
102841 226752 386
717510 221671 509
672794 891092 525
400767 69029 443
323343 458222 449
35231 701809 509
348735 252601 441
531371 469484 470
541753 250465 470
675441 801515 504
180997 605448 470
727586 967412 525
413718 677809 509
559414 784406 509
122319 578808 470
162958 512499 470
821141 806577 450
168873 446394 449
891447 888342 370
311250 166781 443
373189 743962 509
331413 471816 449
385270 611117 470
384179 970642 525
551680 370189 470
808401 845973 525
471189 129840 449
626104 455764 470
92165 213602 383
924264 3025 525
71881 27533 340
710375 228466 509
78106 447536 449
101249 809435 509
878970 114493 525
143263 880117 525
135346 637584 509
18222 390408 443
160087 225231 386
254552 762310 509
110117 20772 354
736372 386849 509
74237 25316 340
935634 307360 525
148758 741714 509
673095 800165 504
763962 467472 509
495681 673422 509
915934 969895 507
855067 427386 525
774474 709190 468
15139 366000 443
764999 315158 509
338788 317574 384
916144 352217 525
985348 801319 525
424862 731750 509
757243 200372 509
584757 497889 470
745120 133529 509
126786 931695 525
76084 245956 443
204161 184851 360
125204 834445 509
686111 454431 509
536385 208613 470
211798 104487 383
976560 213532 525
151211 501611 449
296571 78381 443
441468 740811 509
39922 628337 509
228853 961180 525
414212 948137 525
288818 729840 509
571990 309073 470
698789 191994 509
448116 557584 470
96179 110107 354
65628 197434 383
453791 644171 509
265322 486856 449
651371 899933 525
538978 209929 470
115093 296897 443
262680 49133 443
97877 760562 509
952824 768783 525
867170 853725 419
253781 933270 525
