746560 50644 509
187328 672924 509
632657 503390 509
759102 56548 509
733142 740870 424
270517 316840 389
988011 108312 525
728466 303296 509
146075 111602 375
566143 347653 470
192788 943964 525
566257 329479 470
467322 361209 449
48618 562324 470
994401 662149 525
74843 616968 470
242431 238696 368
954571 567385 525
694617 146904 509
571680 626739 509
282621 876086 525
763 695182 509
192921 9242 383
278817 798299 509
340565 614115 470
763563 787822 468
908680 770794 525
177652 790369 509
976096 384027 525
461209 954597 525
93326 620419 470
848870 324603 525
906177 541022 525
306852 613118 470
383667 154009 443
613445 961099 525
739783 318227 509
959113 528356 525
728311 201791 509
430863 629316 509
342477 182960 443
909449 776084 525
636491 977829 525
479545 790776 509
961887 497911 525
589281 292927 470
814562 202770 509
235460 255318 368
702654 199111 509
184874 438376 449
330838 697497 509
966254 374459 525
972892 358266 525
501266 396172 449
477128 134174 449
931663 240928 525
459222 811440 509
610864 725138 509
288118 823677 509
649454 68577 509
336472 303556 384
162049 133582 383
452557 95024 449
309483 987730 525
558012 642419 509
373287 19048 443
154834 126892 375
19899 601115 470
567506 20274 470
667292 762277 504
287977 955839 525
183334 220457 386
248511 677581 509
986304 177819 525
109275 827799 509
341904 311484 384
150478 479909 449
437553 299262 449
138834 685209 509
109213 685193 509
298379 946257 525
707143 332465 509
116071 326882 443
854454 218445 525
212782 299850 443
212229 736214 509
143865 867950 525
884734 314476 525
904149 275197 525
65231 358376 443
402229 542574 470
336697 879679 525
557765 335573 470
489884 344785 449
2413 194930 383
72228 260856 443
588482 481109 470
424902 966940 525
71805 627518 509
138576 668381 509
656613 152196 509
217182 247288 443
861243 241525 525
761696 244742 509
694059 810317 504
176076 592737 470
215343 37099 383
975537 791353 525
969110 27032 525
164145 292130 443
6156 492951 449
7432 460675 449
698378 698305 199
988821 429707 525
815029 76163 509
249246 797197 509
847825 956742 507
708646 515299 509
603459 855149 525
282376 979151 525
839143 416886 525
571097 646 470
50654 983481 525
959503 862297 507
973986 811270 525
662972 101454 509
951434 780908 525
37256 566695 470
709178 838086 525
703635 855094 525
778244 196696 509
155382 806138 509
692794 52432 509
298482 710967 509
543363 697499 509
902753 984869 507
544157 220935 470
513863 97613 470
470702 68296 449
62222 819985 509
812700 414360 509
890202 584384 525
521493 750476 509
809489 301372 509
437653 709030 509
751037 19985 509
161826 433997 449
277458 347130 441
659450 606253 509
171606 650284 509
272930 832585 509
509243 315549 449
223107 393065 443
993636 16166 525
15604 386337 443
884972 180673 525
699805 158563 509
976659 473994 525
937733 142990 525
697632 937999 525
999667 68472 525
423491 797225 509
716747 134263 509
606512 999210 525
136367 982234 525
625886 771576 509
777560 421613 509
801970 206816 509
937505 631523 525
195285 614660 470
81339 749321 509
293163 354529 441
226214 395860 443
381824 607576 470
608660 773688 509
746242 264380 509
140881 365073 443
389353 693467 509
37797 280216 443
621613 471762 470
126943 161044 383
983920 21293 525
32994 145214 375
810149 535910 509
294399 945526 525
503859 726426 509
827768 687062 504
410675 59935 449
750127 432088 509
434495 143612 449
909405 871179 445
425995 940747 525
289366 416470 449
421150 961012 525
297466 205216 443
900958 671446 525
688503 523866 509
23482 447219 449
785802 89473 509
534621 828675 509
235531 106384 443
50430 866961 525
835694 745940 468
763571 293774 509
960751 731876 525
805692 745448 468
332829 969843 525
143972 527120 470
913181 303595 525
518531 139654 470
975691 167264 525
355454 20615 443
354207 335642 441
618934 917638 525
868697 988965 507
180565 729442 509
868873 550397 525
842780 599054 525
480999 195850 449
186382 592614 470
