1 10 20
100 200 125
201 210 89
900 1000 174
231394 146603 443
982026 356903 525
972650 20247 525
596057 655161 509
481157 112736 449
721403 397039 509
524655 3800 470
725075 836023 468
39841 148964 375
964668 690275 525
293187 537439 470
685729 211751 509
670507 929919 525
194425 496471 449
583186 233553 470
687048 241843 509
343062 11573 443
129049 143614 375
548374 483767 470
525625 578375 452
129341 597261 470
543474 53910 470
505854 216820 449
176246 333069 443
11896 145657 375
330236 305049 384
343698 839255 525
743937 216654 509
30601 54694 340
949481 892690 507
704396 989180 525
26409 875762 525
634965 133824 509
806978 825126 450
435312 74618 449
962118 927138 507
17150 552510 470
810020 731197 468
324471 278305 389
358676 103902 443
501586 747756 509
887096 322267 525
372781 211836 443
682657 216666 509
479434 628859 509
124743 693403 509
371908 672636 509
564041 824568 509
138495 362932 443
460098 462389 444
307113 121063 443
870150 456699 525
139126 476892 449
182016 92785 383
939566 949549 383
961817 608821 525
697204 902417 525
765464 489632 509
944942 1789 525
263968 459287 449
925054 893412 476
121888 415307 449
254087 543651 470
846858 365215 525
962265 621245 525
878524 50311 525
620629 376888 470
220579 765499 509
810412 109155 509
495817 978620 525
640597 504630 509
402003 963326 525
694272 756414 504
420834 1852 449
549064 301654 470
380963 829646 509
621363 998275 525
905314 692045 525
228690 10978 386
762320 620583 509
249837 159741 443
285842 670341 509
39902 13914 324
336567 36567 443
468939 132189 449
246349 537293 470
181769 774985 509
985960 722913 525
556378 954780 525
832285 147119 509
863437 103790 525
38429 265966 443
769528 654526 504
214392 586910 470
561084 20621 470
338516 245776 407
33683 420855 449
481767 170156 449
7433 13136 268
947016 554906 525
531620 39720 470
550319 842665 525
119899 705265 509
147595 303873 443
204174 850078 525
552124 139637 470
475146 446520 444
802142 979008 525
425952 230002 449
920716 371160 525
159384 41592 383
212661 575125 470
916488 820761 525
302071 862438 525
771568 580894 509
596270 76686 470
832186 589626 509
724634 341206 509
726267 460776 509
306606 773870 509
16637 365956 443
670576 555216 509
355056 943197 525
160654 708647 509
262250 490049 449
930100 422582 525
966108 72564 525
227037 623621 470
368061 700375 509
805900 352022 509
447407 695026 509
564649 355839 470
160312 689651 509
927129 739297 525
620984 701191 509
4198 808278 509
695436 478149 509
224666 985542 525
979833 86033 525
631042 464095 509
991825 938382 507
718843 296126 509
806258 12353 509
947507 504130 525
774546 693296 504
501854 508074 426
740536 542960 509
69538 309205 443
561065 971324 525
300852 426892 449
447274 337492 449
36365 206314 383
936408 191387 525
792575 112717 509
373742 595337 470
807847 380937 509
139476 761618 509
825974 876793 525
531600 61655 470
179975 942662 525
405378 36731 443
318629 479570 449
856592 869611 388
118742 583040 470
931525 15066 525
440106 76419 449
959934 890412 507
843337 699603 525
94673 925169 525
613853 176670 470
697053 8821 509
194935 431756 449
647173 379622 509
861980 884426 432
887744 708715 525
861215 570648 525
55078 680575 509
325762 696206 509
270913 769955 509
615207 81796 470
591245 141850 470
392349 724861 509
45688 389924 443
75894 38401 340
775254 12104 509
26292 890831 525
132137 538553 470
904642 202327 525
292316 906007 525
853776 481326 525
387420 162786 443
602100 494564 470
998766 599616 525
695105 898997 525
490045 254018 449
50989 796287 509
