674631 753652 504
58072 411928 449
609099 947137 525
210967 303218 443
34690 497522 449
931531 589572 525
691646 424696 509
305927 74509 443
524845 901961 525
29786 668956 509
209975 707806 509
825077 366092 509
312755 967981 525
71294 545958 470
76302 299081 443
349883 57658 443
91385 313609 443
477801 508507 426
464438 114999 449
42011 409885 443
196619 809620 509
231177 468063 449
528167 330530 470
779950 296391 509
932875 344087 525
724718 760993 424
557178 241011 470
872383 46185 525
285189 389236 441
892540 680789 525
171064 41035 383
182621 442147 449
742792 34698 509
46401 731767 509
318183 602858 470
802081 733987 468
295754 608320 470
21044 698062 509
904405 479770 525
230526 953407 525
289895 840106 525
908296 401986 525
210475 64446 383
4423 998282 525
174441 483761 449
917882 96357 525
408137 505209 449
432666 149156 449
807342 451157 509
36213 472452 449
814631 981960 525
833483 102394 509
571818 596289 434
20072 626821 509
821341 44374 509
709575 585390 509
516336 296 470
596795 794414 509
256399 452075 449
311899 491864 449
477020 968757 525
697555 720869 504
972243 58537 525
560403 644749 509
88076 731322 509
168960 685111 509
887539 869371 445
96935 600776 470
921098 308950 525
941784 712734 525
438132 204870 449
22591 534339 470
107313 629544 509
104007 525770 470
459300 426395 400
890697 988925 507
6353 443067 449
47638 496355 449
63599 478036 449
827839 100652 509
821960 977977 525
330633 933792 525
191561 661127 509
197121 78458 383
763210 547017 509
215608 552361 470
866014 4338 525
852406 402561 525
291583 913134 525
53427 816931 509
783101 306807 509
269125 569259 470
51382 613937 470
605007 410443 470
582334 252433 470
813375 178693 509
514939 491655 470
57789 20884 340
973472 190995 525
890594 728364 525
152945 552362 470
190991 291329 443
965541 834151 525
257436 425617 449
889382 839924 445
48126 604918 470
287857 811763 509
344690 198118 443
676699 498285 509
961583 571891 525
874932 892342 445
679753 899006 525
797676 595806 509
694339 618458 509
369598 497929 449
308409 707282 509
169212 249056 443
765365 854106 525
769796 333960 509
248469 983905 525
775293 154973 509
408353 733647 509
818773 488268 509
505299 421708 444
566431 670895 509
404840 229047 443
609247 485731 470
859819 206896 525
399676 579603 470
944106 139972 525
554595 720128 509
50155 253123 443
334329 966901 525
977352 564880 525
805517 381874 509
216008 89613 383
939678 504482 525
556163 595930 434
913259 478686 525
505384 182125 449
359570 932933 525
898638 936490 476
94057 646846 509
422349 759016 509
612730 608485 359
724862 917267 525
702348 11802 509
113294 860205 525
701164 810285 504
302846 942046 525
713121 768587 468
74220 829920 509
377885 943955 525
437060 234016 449
855009 17332 525
262915 105390 443
705534 409121 509
946096 794234 525
713479 863279 525
540931 217374 470
340681 563199 470
809182 326012 509
603076 222639 470
849850 472699 525
845938 802215 525
184276 293099 443
954591 360659 525
597672 172497 470
298799 948200 525
489065 186477 449
683698 905004 525
606962 942484 525
512116 877055 525
575404 416376 470
409778 533328 470
967987 111601 525
646993 364585 509
122012 705250 509
963459 639819 525
663988 642571 429
783211 158152 509
881730 480000 525
384938 510098 449
843990 832673 525
862309 404014 525
558740 318464 470
65918 44587 340
917769 308852 525
689380 440948 509
562918 144389 470
359807 864159 525
104717 42390 351
511806 769342 509
693623 531671 509
465645 350123 449
282537 671389 509
647608 996111 525
857864 383735 525
753708 319655 509
359661 407821 436
115715 228899 386
363992 990589 525
78462 659290 509
161857 377424 443
73059 46089 340
532431 749468 509
195234 114531 383
629568 368380 509
356997 127476 443
731672 315699 509
318530 574002 470
319671 552208 470
869184 892094 445
111245 912880 525
90375 975436 525
466025 81892 449
498224 50286 449
799323 758148 468
575456 672424 509
832927 657648 504
463359 458509 444
257998 453267 449
296363 770897 509
901826 779256 525
279686 754779 509
180910 435155 449
344759 405302 441
679805 270248 509
365421 915486 525
946511 951325 414
508474 561406 470
283364 481626 449
555559 679057 509
33382 843877 525
753702 635610 504
55916 196358 383
540763 674562 509
810142 771995 468
717924 55124 509
100775 934346 525
32171 171161 383
19533 996531 525
994743 691826 525
696581 450981 509
462025 867424 525
252124 912753 525
609363 549240 434
216485 15276 386
943354 58616 525
27270 822734 509
